MP03: Spotify Song Analytics
…
3. Songs by the Same Artist

Below is a list of Led Zeppelin or Creedence Clearwater Revival songs that match in sound and message.

# A tibble: 29 × 2
   name                                             artists                     
   <chr>                                            <chr>                       
 1 Kashmir - 1990 Remaster                          ['Led Zeppelin']            
 2 I Put A Spell On You                             ['Creedence Clearwater Revi…
 3 Whole Lotta Love - 1990 Remaster                 ['Led Zeppelin']            
 4 The Lemon Song - 1993 Remaster                   ['Led Zeppelin']            
 5 Going to California - 2012 Remaster              ['Led Zeppelin']            
 6 Down On The Corner                               ['Creedence Clearwater Revi…
 7 Up Around The Bend                               ['Creedence Clearwater Revi…
 8 Good Times Bad Times - 1993 Remaster             ['Led Zeppelin']            
 9 What Is and What Should Never Be - 1990 Remaster ['Led Zeppelin']            
10 The Wanton Song - 1990 Remaster                  ['Led Zeppelin']            
# ℹ 19 more rows
…
This assignment requires both data analysis and creative judgment. Our two anchor songs “Stairway to Heaven” and “Fortunate Son” will serve as the base for constructing a 12-track playlist which maintains musical flow and thematic coherence while featuring established tracks alongside lesser-known songs.

Note

Our playlist must meet the following criteria:

at least 12 tracks.

2 songs that listeners have not heard before.

3 songs that fail to meet our established popularity criteria

The playlist needs to demonstrate progression through its structure which can either ascend and descend or follow another pattern.

# A tibble: 71 × 2
   name                             artists         
   <chr>                            <chr>           
 1 Carry on Wayward Son             ['Kansas']      
 2 Brown Eyed Girl                  ['Van Morrison']
 3 Hotel California - 2013 Remaster ['Eagles']      
 4 More Than a Feeling              ['Boston']      
 5 Sweet Emotion                    ['Aerosmith']   
 6 Dream On                         ['Aerosmith']   
 7 House Of The Rising Sun          ['The Animals'] 
 8 Piano Man                        ['Billy Joel']  
 9 Thunderstruck                    ['AC/DC']       
10 American Pie                     ['Don McLean']  
# ℹ 61 more rows
…
